%YAML 1.1
%TAG !u! tag:unity3d.com,2011:
--- !u!221 &22100000
AnimatorOverrideController:
  m_ObjectHideFlags: 0
  m_PrefabParentObject: {fileID: 0}
  m_PrefabInternal: {fileID: 0}
  m_Name: Purple enemy
  m_Controller: {fileID: 9100000, guid: 938aa583670f1684d848c98863178812, type: 2}
  m_Clips:
  - m_OriginalClip: {fileID: 7400000, guid: cf31bad20a0959a4c83747c839e46d92, type: 2}
    m_OverrideClip: {fileID: 7400000, guid: 3264cd02148b2e94ba4d833c37cfea63, type: 2}
  - m_OriginalClip: {fileID: 7400000, guid: 9c6753f4438fd94499324b5fb2953c84, type: 2}
    m_OverrideClip: {fileID: 7400000, guid: 0c0bd6ea47829304fa856087fba8ec16, type: 2}
